{
  "_name_or_path": "finiteautomata/beto-sentiment-analysis",
  "architectures": [
    "BertForSequenceClassification"
  ],
  "attention_probs_dropout_prob": 0.1,
  "classifier_dropout": null,
  "gradient_checkpointing": false,
  "hidden_act": "gelu",
  "hidden_dropout_prob": 0.1,
  "hidden_size": 768,
  "id2label": {
    "0": "NEG",
    "1": "NEU",
    "2": "POS"
  },
  "initializer_range": 0.02,
  "intermediate_size": 3072,
  "label2id": {
    "NEG": 0,
    "NEU": 1,
    "POS": 2
  },
  "layer_norm_eps": 1e-12,
  "max_position_embeddings": 512,
  "model_type": "bert",
  "num_attention_heads": 12,
  "num_hidden_layers": 12,
  "output_past": true,
  "pad_token_id": 1,
  "position_embedding_type": "absolute",
  "problem_type": "single_label_classification",
  "torch_dtype": "float32",
  "transformers_version": "4.26.0",
  "type_vocab_size": 2,
  "use_cache": true,
  "vocab_size": 31006
}
