{
  "cls_token": "[CLS]",
  "do_basic_tokenize": true,
  "do_lower_case": false,
  "mask_token": "[MASK]",
  "model_max_length": 512,
  "name_or_path": "finiteautomata/beto-sentiment-analysis",
  "never_split": null,
  "pad_token": "[PAD]",
  "sep_token": "[SEP]",
  "special_tokens_map_file": "/home/jmperez/.cache/huggingface/transformers/9848a00af462c42dfb4ec88ef438fbab5256330f7f6f50badc48d277f9367d49.f982506b52498d4adb4bd491f593dc92b2ef6be61bfdbe9d30f53f963f9f5b66",
  "strip_accents": false,
  "tokenize_chinese_chars": true,
  "tokenizer_class": "BertTokenizer",
  "unk_token": "[UNK]"
}
